Genomic Selection Pipeline with brapiR2 • brapiR2
…
dim(dosage)
#> [1]   250 45230

# Preview dosage values
dosage[1:4, 1:6]
#>             SNP_chr1_1234 SNP_chr1_5678 SNP_chr2_234 SNP_chr2_890 ...
#> Variety_001             0             1            2            0
#> Variety_002             2             0            0            1
#> Variety_003             1             1            1            1
#> Variety_004             0             0            2            0

# Get marker map for downstream QTL / Manhattan plots
markers <- brapi_get_marker_map(con, "vs001")
markers
#> # A tibble: 45230 x 4
#>    variantDbId    variantName   referenceName  start
#>    <chr>          <chr>         <chr>          <int>
#>  1 var001         SNP_chr1_1234 1A              1234
#>  2 var002         SNP_chr1_5678 1A              5678
#>  # ... with 45228 more rows
…
